<?xml version="1.0" encoding="utf-8"?>
<!-- Generator: Adobe Illustrator 20.0.0, SVG Export Plug-In . SVG Version: 6.00 Build 0)  -->
<svg version="1.1" id="Capa_1" xmlns="http://www.w3.org/2000/svg" xmlns:xlink="http://www.w3.org/1999/xlink" x="0px" y="0px"
	 viewBox="0 0 803.6 792.5" style="enable-background:new 0 0 803.6 792.5;" xml:space="preserve">
<style type="text/css">
	.st0{fill:none;stroke:#000000;stroke-width:22;stroke-miterlimit:10;}
</style>
<g>
	<g>
		<path d="M573.1,201.8H230.5c-38.5,0-69.9,31.3-69.9,69.9v209.1c0,38.5,31.3,69.9,69.9,69.9h30.7v62.5c0,5.1,2.9,9.7,7.4,12
			c1.9,1,4,1.5,6.1,1.5c2.8,0,5.6-0.9,8-2.6l100.7-73.4h189.7c38.5,0,69.9-31.3,69.9-69.9V271.7C643,233.1,611.6,201.8,573.1,201.8z
			 M616,480.7c0,23.6-19.2,42.9-42.9,42.9H379c-2.9,0-5.6,0.9-8,2.6l-82.8,60.4v-49.5c0-3.6-1.4-7-4-9.5c-2.6-2.5-6-4-9.5-4h-44.2
			c-23.6,0-42.9-19.2-42.9-42.9v-209c0-23.6,19.2-42.9,42.9-42.9h342.6c23.6,0,42.9,19.2,42.9,42.9V480.7L616,480.7z"/>
		<path d="M521.1,293H282.5c-7.5,0-13.5,6-13.5,13.5s6,13.5,13.5,13.5h238.6c7.5,0,13.5-6,13.5-13.5S528.6,293,521.1,293z"/>
		<path d="M521.1,358.4H282.5c-7.5,0-13.5,6-13.5,13.5s6,13.5,13.5,13.5h238.6c7.5,0,13.5-6,13.5-13.5S528.6,358.4,521.1,358.4z"/>
		<path d="M521.1,423.8H282.5c-7.5,0-13.5,6-13.5,13.5s6,13.5,13.5,13.5h238.6c7.5,0,13.5-6,13.5-13.5S528.6,423.8,521.1,423.8z"/>
	</g>
</g>
<circle class="st0" cx="399.9" cy="395.5" r="376.1"/>
</svg>
